
{

  "add_user": "Add user",
  "new_user": "New user",
  "name": "Name",
  "role": "Role",
  "status": "Status",
  "actions": "Actions",
  "active": "Active",
  "blocked": "Blocked",
  "create_user_success": "User was successfully created",
  "create_user_fail": "User was not created",
  "block_user_success": "User account was successfully blocked",
  "block_user_failed": "User account was not blocked",
  "unblock_user_success": "User account was successfully unblocked",
  "unblock_user_failed": "User account was not unblocked",
  "admin": "Admin",
  "operator": "Operator",
  "timezone": "Timezone",
  "email_error_validation": "Please enter the correct e-mail!",
  "user_name_error_validation": "Please enter the user's name!",
  "password_error_validation": "User's password should have at least 4 letters without spaces!",
  "email_placeholder": "e.g. email@gmail.com",
  "name_placeholder": "e.g. John Smith",
  "default_timezone": "by default",
  "loading": "Loading...",
  "welcome_back": "Welcome back!",
  "login_email": "Email",
  "login_email_empty": "Empty 'Email' field",
  "login_password": "Password",
  "login_password_empty": "Empty 'Password' field",
  "login_error_message": "Incorrect email or password",
  "login_submit": "Log in",
  "remember_me": "Remember me",
  "login_forgot_pass": "Forgot password?",
  "main_menu_reports": "Reports",
  "log_out": "Log out",
  "report": "Report",
  "casino_performance": "Casino Performance",
  "players_performance": "Players Performance",
  "player_performance": "Player Game History",
  "games_performance": "Games Performance",
  "content_page_reports": "Reports",
  "content_page_all": "All",
  "casino_report_from_date": "From date",
  "game_id": "Game ID",
  "game_id_tooltip": "Unique game identifier",
  "game_sessiopn_id": "Game session ID",
  "game_session_id_tooltip": "Game session identifier in the system",
  "transaction_id": "Transaction ID",
  "transaction_id_tooltip": "Identifier of the first game action in the bet-session",
  "casino_report_from_date_tooltip": "Starting date of the period",
  "casino_report_to_date": "To date",
  "casino_report_to_date_tooltip": "Ending date of the period",
  "casino_report_total_spins_tooltip": "Number of rounds (spins) played within the given period",
  "casino_report_total_bets_tooltip": "Total of bets placed within the given period",
  "casino_report_payout": "Payout",
  "casino_report_payout_tooltip": "Total of wins placed within the given period",
  "casino_report_unique_players_tooltip": "Total count of unique players who played at least one round - does not matter if using real, bonus money or free spins - in given period",
  "casino_report_rtp": "RTP",
  "casino_report_rtp_tooltip":"Return to player - Payout percentage of the game(s) for the given time period",
  "casino_report_new_players": "New players",
  "casino_report_new_players_tooltip": "Players that have not played before within the given period",
  "games_report_game_name": "Game name",
  "games_report_game_name_tooltip": "Commercial name of the game",
  "games_report_unique_players": "Unique players",
  "games_report_unique_players_tooltip": "Number of unique players within the given period",
  "games_report_spins": "Spins",
  "games_report_total_bet": "Total bet",
  "games_report_total_bet_tooltip": "Sum of all bets for the game in the given period",
  "games_report_win_tooltip": "Sum of all game payouts in the given period",
  "games_report_game_win": "Net win",
  "games_report_game_win_tooltip": "Casino Win (Total bets - Total wins or payouts)",
  "games_report_payout": "Payout",
  "players_report_login": "Login",
  "players_report_player_login": "Player login",
  "players_report_player_login_tooltip": "Player's unique username",
  "players_report_game_history": "Game history",
  "overview": "Overview",
  "players_report_game_history_tooltip": "Player Game history report",
  "page_not_found": "Sorry, the page you visited does not exist.",
  "players_report_player_id": "Player ID",
  "players_report_player_name": "Player Name",
  "players_report_total_spins": "Total spins",
  "players_report_total_bet": "Total bet",
  "players_report_total_player_win": "Total payout",
  "players_report_total_player_win_tooltip": "Sum of all game payouts in the given period for the player",
  "players_report_casino_win": "Casino win",
  "players_report_total_bets_tooltip": "Sum of all bets for the player in the given period",
  "players_report_net_win_tooltip": "Casino Win (Total bets - Total wins or payouts)",
  "players_report_payout": "Payout",
  "player_id": "Player ID",
  "player_id_tooltip": "Player's unique identifier in BackOffice",
  "game_name": "Game name",
  "game_name_tooltip": "Commercial name of the game",
  "gameSession_id": "Game Session ID",
  "date_time": "Date & Time",
  "date_time_tooltip": "Date and time of the game transaction, displayed in the admin user time zone. Game completed time is used",
  "language_region": "Language & Region",
  "currency": "Currency",
  "language": "Language",
  "currency-hint": "The currency used to present data in reports. Empty 'Email' fieldIf the currency selected is different from the currency used by players, it will be converted based on the exchange rate on the day the transaction(s) took place.",
  "save": "Save",
  "currency_filter": "Player Currency",
  "see_all_curency": "See all  ",
  "hide_all_curency": "See less",
  "select-all_curency": "Select all",
  "resert_curency": "Reset",
  "start_balance": "Start balance",
  "start_balance_tooltip": "Player's balance prior the bet",
  "end_balance": "End balance",
  "end_balance_tooltip": "Player's balance after the bet, including contribution and winnings",
  "bet": "Bet",
  "bet_tooltip": "Player's game round bet amount",
  "payout": "Payout",
  "payout_tooltip": "Player's game round win",
  "visual_log": "Visual log",
  "visual_log_tooltip": "Link triggering round details - additional parameters and image of the outcome. The outcome is available for both won and lost games",
  "show_date_range": "Select date range",
  "today": "Today",
  "yesterday": "Yesterday",
  "week_to_date": "Week to date",
  "month_to_date": "Month to date",
  "last_7_days": "Last 7 days",
  "last_30_days": "Last 30 days",
  "last_180_days": "Last 180 days",
  "server_error": "Sorry, the sever is wrong.",
  "wrong_url": "Sorry, the page you visited does not exist.",
  "404_not_found": "Sorry, the page you visited does not exist.",
  "period": "Period",
  "table_tools_filter": "Filters",
  "table_tools_cancel": "Cancel",
  "table_tools_apply": "Apply",
  "table_tools_reset": "Reset All",
  "settings-title": "Settings",
  "set-automatically": "Set automatically",
  "settings-profile": "Profile",
  "search": "Search...",
  "currency-search": "Type currency...",
  "users": "Users",
  "filtered-by": "Filtered by:",
  "not_supported": "Your browser is not supported. Please open the app in other browser, like Chrome, Safari, Firefox etc.",
  "from-1": "FROM",
  "to-1": "TO"
}